[
    {
      "id": 1,
      "name":"Nike Wmns Downshifter",
      "price": 2999,
      "imageUrl": "https://content1.rozetka.com.ua/goods/images/big/190280309.jpg",
      "code": 10001,
      "color": "darkblue"
    },
    {
      "id": 2,
      "name":"Nike W Flex Experience",
      "price": 5200,
      "imageUrl": "https://content1.rozetka.com.ua/goods/images/big/289341081.jpg",
      "code": 10002,
      "color": "beige"
    },
    {
      "id": 3,
      "name":"Nike Wmns Air Winflo 9 Shield",
      "price": 4100,
      "imageUrl": "https://content2.rozetka.com.ua/goods/images/big/313168032.jpg",
      "code": 10003,
      "color": "black"
    },
  {
    "id": 4,
    "name":"Nike Wmns Air Max Excee",
    "price": 8500,
    "imageUrl": "https://content.rozetka.com.ua/goods/images/big/215387385.jpg",
    "code": 10004,
    "color": "darkcyan"
  },
  {
    "id": 5,
    "name":" Nike Quest",
    "price": 4500,
    "imageUrl": "https://content2.rozetka.com.ua/goods/images/big/311839267.jpg",
    "code": 10005,
    "color": "limegreen"
  },
  {
    "id": 6,
    "name":"Nike Air Max Dawn",
    "price": 12500,
    "imageUrl": "https://content1.rozetka.com.ua/goods/images/big/315462136.jpg",
    "code": 10006,
    "color": "#ea072b "
  },
  {
    "id": 7,
    "name":"Nike Wmns Wearallday",
    "price": 8070,
    "imageUrl": "https://content1.rozetka.com.ua/goods/images/big/185315242.jpg",
    "code": 10007,
    "color": "darkblue"
  },
  {
    "id": 8,
    "name":"Nike Air Max Dawn ",
    "price": 10000,
    "imageUrl": "https://content2.rozetka.com.ua/goods/images/big/315832409.jpg",
    "code": 10008,
    "color": "red"
  },
  {
    "id": 9,
    "name":"Nike W Revolution 6 Flyease",
    "price": 20700,
    "imageUrl": "https://content1.rozetka.com.ua/goods/images/big/309523785.jpg",
    "code": 10009,
    "color": "yellow"
  },
  {
    "id": 10,
    "name":"Nike Wmns Venture Runner",
    "price": 11250,
    "imageUrl": "https://content2.rozetka.com.ua/goods/images/big/310424791.jpg",
    "code": 10010,
    "color": "orange"
  }
]
